<?xml version="1.0" encoding="UTF-8"?>
<glyph name="uni216E" format="1">
  <advance width="4096"/>
  <unicode hex="216E"/>
  <outline>
    <contour>
      <point x="10" y="3021" type="move" smooth="yes"/>
      <point x="18" y="3026"/>
      <point x="36" y="3023"/>
      <point x="46" y="3023" type="curve" smooth="yes"/>
      <point x="135" y="3023" type="line"/>
      <point x="454" y="3023" type="line" smooth="yes"/>
      <point x="542" y="3023"/>
      <point x="629" y="3022"/>
      <point x="717" y="3016" type="curve" smooth="yes"/>
      <point x="770" y="3012"/>
      <point x="824" y="3008"/>
      <point x="877" y="2996" type="curve" smooth="yes"/>
      <point x="996" y="2969"/>
      <point x="1110" y="2915"/>
      <point x="1200" y="2831" type="curve" smooth="yes"/>
      <point x="1360" y="2682"/>
      <point x="1444" y="2472"/>
      <point x="1491" y="2263" type="curve" smooth="yes"/>
      <point x="1526" y="2106"/>
      <point x="1542" y="1947"/>
      <point x="1549" y="1788" type="curve" smooth="yes"/>
      <point x="1552" y="1701"/>
      <point x="1554" y="1616"/>
      <point x="1551" y="1530" type="curve" smooth="yes"/>
      <point x="1542" y="1334"/>
      <point x="1526" y="1139"/>
      <point x="1472" y="951" type="curve" smooth="yes"/>
      <point x="1404" y="712"/>
      <point x="1275" y="475"/>
      <point x="1042" y="364" type="curve" smooth="yes"/>
      <point x="982" y="336"/>
      <point x="918" y="315"/>
      <point x="853" y="304" type="curve" smooth="yes"/>
      <point x="792" y="293"/>
      <point x="730" y="290"/>
      <point x="669" y="285" type="curve" smooth="yes"/>
      <point x="530" y="276"/>
      <point x="390" y="281"/>
      <point x="252" y="281" type="curve" smooth="yes"/>
      <point x="64" y="281" type="line"/>
      <point x="18" y="281" type="line" smooth="yes"/>
      <point x="14" y="281"/>
      <point x="4" y="279"/>
      <point x="2" y="282" type="curve" smooth="yes"/>
      <point x="-2" y="287"/>
      <point x="1" y="305"/>
      <point x="1" y="312" type="curve" smooth="yes"/>
      <point x="1" y="395" type="line"/>
      <point x="1" y="717" type="line"/>
      <point x="1" y="1964" type="line"/>
      <point x="1" y="2768" type="line"/>
      <point x="1" y="2959" type="line"/>
      <point x="1" y="3001" type="line" smooth="yes"/>
      <point x="1" y="3009"/>
      <point x="1" y="3017"/>
      <point x="10" y="3021" type="curve" smooth="yes"/>
    </contour>
  </outline>
</glyph>
